#include "stdafx.h"
#include <iostream>
using namespace std;

//testing comment, ignore //
int _tmain(int argc, _TCHAR* argv[])
{

int x;

cout << "please enter a number: \n";
cin >> x;

if(x > 0) {
cout << x <<" is positive \n";
} 
else {
if (x==0) {
cout << "0 is neither positive nor negative \n";
} 
else 
cout << x << " is negative \n";
}
	system("pause");
		return 0;
}